[gd_resource type="SpatialMaterial" format=2]

[resource]
resource_name = "paintYellow"
vertex_color_use_as_albedo = true
params_diffuse_mode = 4
params_specular_mode = 4
albedo_color = Color( 0.989585, 0.89044, 0.560628, 1 )
