[gd_scene load_steps=9 format=2]

[ext_resource path="res://Elements/Candy/Candy.tscn" type="PackedScene" id=1]
[ext_resource path="res://Elements/Candy/candyBullet.gd" type="Script" id=2]
[ext_resource path="res://Assets/SFX/throwing-04.ogg" type="AudioStream" id=3]

[sub_resource type="SphereShape" id=1]
radius = 0.5

[sub_resource type="SpatialMaterial" id=2]
params_diffuse_mode = 4
params_specular_mode = 4
albedo_color = Color( 0.473051, 0, 1, 1 )

[sub_resource type="SpatialMaterial" id=3]
params_diffuse_mode = 4
params_specular_mode = 4
albedo_color = Color( 0, 0.903652, 1, 1 )

[sub_resource type="SpatialMaterial" id=4]
params_diffuse_mode = 4
params_specular_mode = 4
params_cull_mode = 2
albedo_color = Color( 1, 0, 0.427215, 1 )

[sub_resource type="Animation" id=5]
loop = true
tracks/0/type = "value"
tracks/0/path = NodePath(".:rotation_degrees")
tracks/0/interp = 1
tracks/0/loop_wrap = true
tracks/0/imported = false
tracks/0/enabled = true
tracks/0/keys = {
"times": PoolRealArray( 0, 1 ),
"transitions": PoolRealArray( 1, 1 ),
"update": 0,
"values": [ Vector3( 0, 0, 0 ), Vector3( 0, 0, 360 ) ]
}

[node name="candyBullet" type="Area"]
collision_layer = 0
script = ExtResource( 2 )
speed = 50

[node name="CollisionShape" type="CollisionShape" parent="."]
transform = Transform( 1, 0, 0, 0, 0.802869, 0.596155, 0, -0.596155, 0.802869, 0, 0, 0 )
shape = SubResource( 1 )

[node name="Candy" parent="." instance=ExtResource( 1 )]
transform = Transform( -0.323837, -0.380959, 0, 0.380959, -0.323837, 0, 0, 0, 0.5, 0, 0, 0 )
candyMat = SubResource( 2 )
stripeMat = SubResource( 3 )
wingsMat = SubResource( 4 )

[node name="AnimationPlayer" type="AnimationPlayer" parent="Candy"]
autoplay = "flySpin"
playback_speed = 2.0
anims/flySpin = SubResource( 5 )

[node name="AudioStreamPlayer3D" type="AudioStreamPlayer3D" parent="."]
stream = ExtResource( 3 )
unit_size = 26.2
autoplay = true

[connection signal="body_entered" from="." to="." method="_on_candyBullet_body_entered"]
