[gd_scene load_steps=3 format=2]

[ext_resource path="res://Assets/crosshairs_tilesheet_white.png" type="Texture" id=1]

[sub_resource type="GDScript" id=1]
script/source = "extends Sprite3D

var target:Node setget setTarget
var color:Color


func _process(delta):
	if target != null:
		global_transform.origin = target.global_transform.origin

func setTarget(value):
	target = value
	if target == null:
		pass
#		hide()
	else:
		pass
#		show()

"

[node name="CrossHair" type="Sprite3D"]
transform = Transform( 10, 0, 0, 0, 10, 0, 0, 0, 1, 0, 0, 0 )
offset = Vector2( 2.5, -0.25 )
billboard = 1
texture = ExtResource( 1 )
hframes = 20
vframes = 10
frame = 80
script = SubResource( 1 )
