[gd_resource type="Theme" load_steps=34 format=2]

[ext_resource path="res://Assets/FlatUI/UIpack_vector.svg" type="Texture" id=1]
[ext_resource path="res://Assets/FlatUI/kenvector_future.ttf" type="DynamicFontData" id=2]

[sub_resource type="StyleBoxTexture" id=1]
texture = ExtResource( 1 )
region_rect = Rect2( 211, 60, 190, 49 )
margin_left = 12.5436
margin_right = 8.78053
margin_top = 10.0349
margin_bottom = 14.2161

[sub_resource type="StyleBoxEmpty" id=2]

[sub_resource type="StyleBoxTexture" id=3]
texture = ExtResource( 1 )
region_rect = Rect2( 1, 60, 190, 49 )
margin_left = 12.5436
margin_right = 8.78053
margin_top = 10.0349
margin_bottom = 14.2161

[sub_resource type="StyleBoxTexture" id=4]
texture = ExtResource( 1 )
region_rect = Rect2( 211, 60, 190, 49 )
margin_left = 12.5436
margin_right = 8.78053
margin_top = 10.0349
margin_bottom = 14.2161

[sub_resource type="StyleBoxTexture" id=5]
texture = ExtResource( 1 )
region_rect = Rect2( 421, 64, 190, 45 )
margin_left = 12.5436
margin_right = 8.78053
margin_top = 10.0349
margin_bottom = 14.2161

[sub_resource type="AtlasTexture" id=6]
flags = 4
atlas = ExtResource( 1 )
region = Rect2( 50, 544, 36, 36 )

[sub_resource type="AtlasTexture" id=7]
flags = 4
atlas = ExtResource( 1 )
region = Rect2( 51, 440, 36, 36 )

[sub_resource type="AtlasTexture" id=8]
flags = 4
atlas = ExtResource( 1 )
region = Rect2( 1, 440, 36, 36 )

[sub_resource type="AtlasTexture" id=9]
flags = 4
atlas = ExtResource( 1 )
region = Rect2( 0, 544, 36, 36 )

[sub_resource type="StyleBoxEmpty" id=10]

[sub_resource type="StyleBoxEmpty" id=11]

[sub_resource type="StyleBoxEmpty" id=12]

[sub_resource type="StyleBoxEmpty" id=13]

[sub_resource type="AtlasTexture" id=14]
flags = 4
atlas = ExtResource( 1 )
region = Rect2( 50, 644, 36, 36 )

[sub_resource type="AtlasTexture" id=15]
flags = 4
atlas = ExtResource( 1 )
region = Rect2( 50, 544, 36, 36 )

[sub_resource type="AtlasTexture" id=16]
flags = 4
atlas = ExtResource( 1 )
region = Rect2( 872, 504, 28, 42 )

[sub_resource type="StyleBoxTexture" id=17]
texture = ExtResource( 1 )
region_rect = Rect2( 840, 316, 192, 6 )

[sub_resource type="StyleBoxEmpty" id=18]

[sub_resource type="StyleBoxTexture" id=19]
texture = ExtResource( 1 )
region_rect = Rect2( 629, 317, 194, 49 )
margin_left = 17.1475
margin_right = 13.718
margin_top = 12.0032
margin_bottom = 9.43112

[sub_resource type="AtlasTexture" id=20]
flags = 4
atlas = ExtResource( 1 )
region = Rect2( 812, 458, 28, 10 )

[sub_resource type="StyleBoxTexture" id=21]
texture = ExtResource( 1 )
region_rect = Rect2( 122, 310, 100, 100 )
margin_left = 12.3202
margin_right = 13.3469
margin_top = 13.3469
margin_bottom = 11.2935

[sub_resource type="AtlasTexture" id=22]
flags = 4
atlas = ExtResource( 1 )
region = Rect2( 50, 544, 36, 36 )

[sub_resource type="AtlasTexture" id=23]
flags = 4
atlas = ExtResource( 1 )
region = Rect2( 51, 440, 36, 36 )

[sub_resource type="AtlasTexture" id=24]
flags = 4
atlas = ExtResource( 1 )
region = Rect2( 1, 440, 36, 36 )

[sub_resource type="AtlasTexture" id=25]
flags = 4
atlas = ExtResource( 1 )
region = Rect2( 0, 544, 36, 36 )

[sub_resource type="StyleBoxTexture" id=26]
content_margin_left = 4.0
content_margin_right = 4.0
content_margin_top = 4.0
content_margin_bottom = 4.0
texture = ExtResource( 1 )
region_rect = Rect2( 1, 60, 190, 49 )
margin_left = 7.94429
margin_right = 8.73872
margin_top = 9.53314
margin_bottom = 13.9025

[sub_resource type="StyleBoxTexture" id=27]
content_margin_left = 10.0
content_margin_right = 10.0
content_margin_top = 10.0
content_margin_bottom = 10.0
texture = ExtResource( 1 )
region_rect = Rect2( 122, 310, 100, 100 )
margin_left = 7.94429
margin_right = 8.73872
margin_top = 9.53314
margin_bottom = 13.9025
expand_margin_top = 10.0
expand_margin_bottom = 10.0

[sub_resource type="StyleBoxTexture" id=28]
content_margin_left = 12.0
content_margin_top = 10.0
texture = ExtResource( 1 )
region_rect = Rect2( 1, 310, 100, 100 )
margin_left = 10.8072
margin_right = 9.71325
margin_top = 28.4299
margin_bottom = 14.7561
axis_stretch_vertical = 1

[sub_resource type="AtlasTexture" id=29]
flags = 4
atlas = ExtResource( 1 )
region = Rect2( 1007, 510, 39, 31 )

[sub_resource type="StyleBoxTexture" id=30]
texture = ExtResource( 1 )
region_rect = Rect2( 1051, 317, 4, 100 )

[sub_resource type="DynamicFont" id=31]
use_mipmaps = true
use_filter = true
font_data = ExtResource( 2 )

[resource]
default_font = SubResource( 31 )
Button/colors/font_color = Color( 0, 0, 0, 1 )
Button/colors/font_color_disabled = Color( 0.9, 0.9, 0.9, 0.2 )
Button/colors/font_color_hover = Color( 0.34902, 0.34902, 0.34902, 1 )
Button/colors/font_color_pressed = Color( 0.388235, 0.388235, 0.388235, 1 )
Button/constants/hseparation = 2
Button/fonts/font = null
Button/styles/disabled = SubResource( 1 )
Button/styles/focus = SubResource( 2 )
Button/styles/hover = SubResource( 3 )
Button/styles/normal = SubResource( 4 )
Button/styles/pressed = SubResource( 5 )
CheckBox/colors/font_color = Color( 0, 0, 0, 1 )
CheckBox/colors/font_color_disabled = Color( 0.9, 0.9, 0.9, 0.2 )
CheckBox/colors/font_color_hover = Color( 0.34902, 0.34902, 0.34902, 1 )
CheckBox/colors/font_color_hover_pressed = Color( 0.34902, 0.34902, 0.34902, 1 )
CheckBox/colors/font_color_pressed = Color( 0.388235, 0.388235, 0.388235, 1 )
CheckBox/constants/check_vadjust = 0
CheckBox/constants/hseparation = 4
CheckBox/fonts/font = null
CheckBox/icons/checked = SubResource( 6 )
CheckBox/icons/radio_checked = SubResource( 7 )
CheckBox/icons/radio_unchecked = SubResource( 8 )
CheckBox/icons/unchecked = SubResource( 9 )
CheckBox/styles/disabled = null
CheckBox/styles/focus = null
CheckBox/styles/hover = SubResource( 10 )
CheckBox/styles/hover_pressed = SubResource( 11 )
CheckBox/styles/normal = SubResource( 12 )
CheckBox/styles/pressed = SubResource( 13 )
CheckButton/colors/font_color = Color( 0, 0, 0, 1 )
CheckButton/colors/font_color_disabled = Color( 0.9, 0.9, 0.9, 0.2 )
CheckButton/colors/font_color_hover = Color( 0.34902, 0.34902, 0.34902, 1 )
CheckButton/colors/font_color_hover_pressed = Color( 0.388235, 0.388235, 0.388235, 1 )
CheckButton/colors/font_color_pressed = Color( 0.388235, 0.388235, 0.388235, 1 )
CheckButton/constants/check_vadjust = 0
CheckButton/constants/hseparation = 4
CheckButton/fonts/font = null
CheckButton/icons/off = SubResource( 14 )
CheckButton/icons/off_disabled = SubResource( 14 )
CheckButton/icons/on = SubResource( 15 )
CheckButton/icons/on_disabled = SubResource( 15 )
CheckButton/styles/disabled = null
CheckButton/styles/focus = null
CheckButton/styles/hover = null
CheckButton/styles/hover_pressed = null
CheckButton/styles/normal = null
CheckButton/styles/pressed = null
HSlider/icons/grabber = SubResource( 16 )
HSlider/icons/grabber_disabled = null
HSlider/icons/grabber_highlight = SubResource( 16 )
HSlider/icons/tick = null
HSlider/styles/grabber_area = SubResource( 17 )
HSlider/styles/grabber_area_highlight = SubResource( 17 )
HSlider/styles/slider = SubResource( 17 )
LineEdit/colors/clear_button_color = Color( 0.88, 0.88, 0.88, 1 )
LineEdit/colors/clear_button_color_pressed = Color( 1, 1, 1, 1 )
LineEdit/colors/cursor_color = Color( 0.34902, 0.34902, 0.34902, 1 )
LineEdit/colors/font_color = Color( 0, 0, 0, 1 )
LineEdit/colors/font_color_selected = Color( 0, 0, 0, 1 )
LineEdit/colors/font_color_uneditable = Color( 0.88, 0.88, 0.88, 0.5 )
LineEdit/colors/selection_color = Color( 1, 0.8, 0, 1 )
LineEdit/constants/minimum_spaces = 12
LineEdit/fonts/font = null
LineEdit/icons/clear = null
LineEdit/styles/focus = SubResource( 18 )
LineEdit/styles/normal = SubResource( 19 )
LineEdit/styles/read_only = SubResource( 19 )
OptionButton/colors/font_color = Color( 0, 0, 0, 1 )
OptionButton/colors/font_color_disabled = Color( 0.9, 0.9, 0.9, 0.2 )
OptionButton/colors/font_color_hover = Color( 0.34902, 0.34902, 0.34902, 1 )
OptionButton/colors/font_color_pressed = Color( 0, 0, 0, 1 )
OptionButton/constants/arrow_margin = 2
OptionButton/constants/hseparation = 2
OptionButton/fonts/font = null
OptionButton/icons/arrow = SubResource( 20 )
OptionButton/styles/disabled = null
OptionButton/styles/focus = null
OptionButton/styles/hover = null
OptionButton/styles/normal = null
OptionButton/styles/pressed = null
Panel/styles/panel = SubResource( 21 )
PopupMenu/colors/font_color = Color( 0, 0, 0, 1 )
PopupMenu/colors/font_color_accel = Color( 0.701961, 0.701961, 0.701961, 0.8 )
PopupMenu/colors/font_color_disabled = Color( 0.4, 0.4, 0.4, 0.8 )
PopupMenu/colors/font_color_hover = Color( 0.388235, 0.388235, 0.388235, 1 )
PopupMenu/constants/hseparation = 4
PopupMenu/constants/vseparation = 32
PopupMenu/fonts/font = null
PopupMenu/icons/checked = SubResource( 22 )
PopupMenu/icons/radio_checked = SubResource( 23 )
PopupMenu/icons/radio_unchecked = SubResource( 24 )
PopupMenu/icons/submenu = null
PopupMenu/icons/unchecked = SubResource( 25 )
PopupMenu/styles/hover = SubResource( 26 )
PopupMenu/styles/labeled_separator_left = null
PopupMenu/styles/labeled_separator_right = null
PopupMenu/styles/panel = SubResource( 27 )
PopupMenu/styles/panel_disabled = null
PopupMenu/styles/separator = null
TextEdit/colors/background_color = Color( 0, 0, 0, 0 )
TextEdit/colors/bookmark_color = Color( 0.08, 0.49, 0.98, 1 )
TextEdit/colors/brace_mismatch_color = Color( 1, 0.2, 0.2, 1 )
TextEdit/colors/breakpoint_color = Color( 0.8, 0.8, 0.4, 0.2 )
TextEdit/colors/caret_background_color = Color( 0, 0, 0, 1 )
TextEdit/colors/caret_color = Color( 0.88, 0.88, 0.88, 1 )
TextEdit/colors/code_folding_color = Color( 0.8, 0.8, 0.8, 0.8 )
TextEdit/colors/completion_background_color = Color( 0.17, 0.16, 0.2, 1 )
TextEdit/colors/completion_existing_color = Color( 0.87, 0.87, 0.87, 0.13 )
TextEdit/colors/completion_font_color = Color( 0.67, 0.67, 0.67, 1 )
TextEdit/colors/completion_scroll_color = Color( 1, 1, 1, 1 )
TextEdit/colors/completion_selected_color = Color( 0.26, 0.26, 0.27, 1 )
TextEdit/colors/current_line_color = Color( 0.25, 0.25, 0.26, 0.8 )
TextEdit/colors/executing_line_color = Color( 0.2, 0.8, 0.2, 0.4 )
TextEdit/colors/font_color = Color( 0, 0, 0, 1 )
TextEdit/colors/font_color_readonly = Color( 0.88, 0.88, 0.88, 0.5 )
TextEdit/colors/font_color_selected = Color( 0.34902, 0.34902, 0.34902, 1 )
TextEdit/colors/function_color = Color( 0.4, 0.64, 0.81, 1 )
TextEdit/colors/line_number_color = Color( 0.67, 0.67, 0.67, 0.4 )
TextEdit/colors/mark_color = Color( 1, 0.4, 0.4, 0.4 )
TextEdit/colors/member_variable_color = Color( 0.9, 0.31, 0.35, 1 )
TextEdit/colors/number_color = Color( 0.92, 0.58, 0.2, 1 )
TextEdit/colors/safe_line_number_color = Color( 0.67, 0.78, 0.67, 0.6 )
TextEdit/colors/selection_color = Color( 0.49, 0.49, 0.49, 1 )
TextEdit/colors/symbol_color = Color( 0.94, 0.94, 0.94, 1 )
TextEdit/colors/word_highlighted_color = Color( 0.8, 0.9, 0.9, 0.15 )
TextEdit/constants/completion_lines = 7
TextEdit/constants/completion_max_width = 50
TextEdit/constants/completion_scroll_width = 3
TextEdit/constants/line_spacing = 4
TextEdit/fonts/font = null
TextEdit/icons/fold = null
TextEdit/icons/folded = null
TextEdit/icons/space = null
TextEdit/icons/tab = null
TextEdit/styles/completion = null
TextEdit/styles/focus = null
TextEdit/styles/normal = SubResource( 28 )
TextEdit/styles/read_only = null
VSlider/icons/grabber = SubResource( 29 )
VSlider/icons/grabber_disabled = SubResource( 29 )
VSlider/icons/grabber_highlight = SubResource( 29 )
VSlider/icons/tick = null
VSlider/styles/grabber_area = SubResource( 30 )
VSlider/styles/grabber_area_highlight = SubResource( 30 )
VSlider/styles/slider = SubResource( 30 )
